{
  "$schema": "https://cdn.deno.land/deno/versions/v1.23.4/raw/cli/schemas/config-file.v1.json",
  "compilerOptions": {
    "target": "esnext",
    "lib": [
      "dom",
      "dom.iterable",
      "esnext"
    ]
  },
  "fmt": {
    "options": {
      "lineWidth": 72,
      "indentWidth": 2,
      "singleQuote": true,
      "proseWrap": "always"
    },
    "files": {
      "include": ["src", "tests"],
      "exclude": ["dist", "coverage", "node", "types"]
    }
  }
}
